WaveData1831.csv

#timebase=-294967296(ps)
,#voltbase=2000000(mv/100)
#size=4164
2.00E-05,3.280
4.00E-05,3.440
6.00E-05,3.280
8.00E-05,3.280
1.00E-04,3.360
1.20E-04,3.440
1.40E-04,3.280
1.60E-04,3.280
1.80E-04,3.280
2.00E-04,3.280
2.20E-04,3.280
2.40E-04,3.360
2.60E-04,3.440
2.80E-04,3.280
3.00E-04,3.360
3.20E-04,3.280
3.40E-04,3.360
3.60E-04,3.280
3.80E-04,3.280
4.00E-04,3.280
4.20E-04,3.360
4.40E-04,3.440
4.60E-04,3.440
4.80E-04,3.280
5.00E-04,3.360
5.20E-04,3.440
5.40E-04,3.360
5.60E-04,3.360
5.80E-04,3.280
6.00E-04,3.280
6.20E-04,3.280
6.40E-04,3.360
6.60E-04,3.360
6.80E-04,3.280
7.00E-04,3.280
7.20E-04,3.360
7.40E-04,3.440
7.60E-04,3.360
7.80E-04,3.280
8.00E-04,3.280
8.20E-04,3.360
8.40E-04,3.360
8.60E-04,3.280
8.80E-04,3.360
9.00E-04,3.360
9.20E-04,3.360
9.40E-04,3.280
9.60E-04,3.360
9.80E-04,3.360
1.00E-03,3.360
1.02E-03,3.280
1.04E-03,3.360
1.06E-03,3.360
1.08E-03,3.280
1.10E-03,3.280
1.12E-03,3.360
1.14E-03,3.360
1.16E-03,3.280
1.18E-03,3.360
1.20E-03,3.360
1.22E-03,3.280
1.24E-03,3.360
1.26E-03,3.280
1.28E-03,3.360
1.30E-03,3.360
1.32E-03,3.280
1.34E-03,3.360
1.36E-03,3.360
1.38E-03,3.360
1.40E-03,3.280
1.42E-03,3.280
1.44E-03,3.440
1.46E-03,3.360
1.48E-03,3.360
1.50E-03,3.360
1.52E-03,3.360
1.54E-03,3.360
1.56E-03,3.280
1.58E-03,3.360
1.60E-03,3.360
1.62E-03,3.280
1.64E-03,3.280
1.66E-03,3.280
1.68E-03,3.280
1.70E-03,3.280
1.72E-03,3.280
1.74E-03,3.440
1.76E-03,3.280
1.78E-03,3.360
1.80E-03,3.360
1.82E-03,3.280
1.84E-03,3.280
1.86E-03,3.280
1.88E-03,3.280
1.90E-03,3.280
1.92E-03,3.280
1.94E-03,3.360
1.96E-03,3.280
1.98E-03,3.280
2.00E-03,3.360
2.02E-03,3.360
2.04E-03,3.360
2.06E-03,3.280
2.08E-03,3.280
2.10E-03,3.360
2.12E-03,3.280
2.14E-03,3.360
2.16E-03,3.280
2.18E-03,3.280
2.20E-03,3.360
2.22E-03,3.360
2.24E-03,3.360
2.26E-03,3.280
2.28E-03,3.440
2.30E-03,3.440
2.32E-03,3.280
2.34E-03,3.360
2.36E-03,3.280
2.38E-03,3.280
2.40E-03,3.280
2.42E-03,3.280
2.44E-03,3.280
2.46E-03,3.280
2.48E-03,3.360
2.50E-03,3.440
2.52E-03,3.280
2.54E-03,3.360
2.56E-03,3.280
2.58E-03,3.440
2.60E-03,3.280
2.62E-03,3.360
2.64E-03,3.440
2.66E-03,3.360
2.68E-03,3.440
2.70E-03,3.440
2.72E-03,3.440
2.74E-03,3.280
2.76E-03,3.280
2.78E-03,3.440
2.80E-03,3.440
2.82E-03,3.360
2.84E-03,3.280
2.86E-03,3.280
2.88E-03,3.360
2.90E-03,3.440
2.92E-03,3.280
2.94E-03,3.360
2.96E-03,3.360
2.98E-03,3.280
3.00E-03,3.360
3.02E-03,3.280
3.04E-03,3.280
3.06E-03,3.360
3.08E-03,3.280
3.10E-03,3.440
3.12E-03,3.360
3.14E-03,3.280
3.16E-03,3.280
3.18E-03,3.280
3.20E-03,3.360
3.22E-03,3.360
3.24E-03,3.360
3.26E-03,3.360
3.28E-03,3.280
3.30E-03,3.280
3.32E-03,3.360
3.34E-03,3.280
3.36E-03,3.440
3.38E-03,3.280
3.40E-03,3.280
3.42E-03,3.360
3.44E-03,3.360
3.46E-03,3.360
3.48E-03,3.280
3.50E-03,3.360
3.52E-03,3.280
3.54E-03,3.360
3.56E-03,3.280
3.58E-03,3.360
3.60E-03,3.360
3.62E-03,3.280
3.64E-03,3.360
3.66E-03,3.360
3.68E-03,3.280
3.70E-03,3.360
3.72E-03,3.360
3.74E-03,3.280
3.76E-03,3.360
3.78E-03,3.360
3.80E-03,3.280
3.82E-03,3.360
3.84E-03,3.280
3.86E-03,3.360
3.88E-03,3.280
3.90E-03,3.440
3.92E-03,3.280
3.94E-03,3.360
3.96E-03,3.280
3.98E-03,3.280
4.00E-03,3.360
4.02E-03,3.360
4.04E-03,3.360
4.06E-03,3.280
4.08E-03,3.280
4.10E-03,3.280
4.12E-03,3.280
4.14E-03,3.280
4.16E-03,3.360
4.18E-03,3.360
4.20E-03,3.360
4.22E-03,3.280
4.24E-03,3.360
4.26E-03,3.280
4.28E-03,3.280
4.30E-03,3.360
4.32E-03,3.360
4.34E-03,3.280
4.36E-03,3.280
4.38E-03,3.360
4.40E-03,3.360
4.42E-03,3.280
4.44E-03,3.280
4.46E-03,3.360
4.48E-03,3.280
4.50E-03,3.440
4.52E-03,3.360
4.54E-03,3.440
4.56E-03,3.280
4.58E-03,3.280
4.60E-03,3.280
4.62E-03,3.280
4.64E-03,3.280
4.66E-03,3.360
4.68E-03,3.440
4.70E-03,3.360
4.72E-03,3.280
4.74E-03,3.360
4.76E-03,3.440
4.78E-03,3.360
4.80E-03,3.440
4.82E-03,3.280
4.84E-03,3.440
4.86E-03,3.360
4.88E-03,3.280
4.90E-03,3.360
4.92E-03,3.360
4.94E-03,3.280
4.96E-03,3.360
4.98E-03,3.280
5.00E-03,3.360
5.02E-03,3.360
5.04E-03,3.280
5.06E-03,3.280
5.08E-03,3.280
5.10E-03,3.280
5.12E-03,3.280
5.14E-03,3.280
5.16E-03,3.360
5.18E-03,3.360
5.20E-03,3.280
5.22E-03,3.280
5.24E-03,3.280
5.26E-03,3.360
5.28E-03,3.360
5.30E-03,3.360
5.32E-03,3.280
5.34E-03,3.360
5.36E-03,3.280
5.38E-03,3.440
5.40E-03,3.280
5.42E-03,3.440
5.44E-03,3.280
5.46E-03,3.360
5.48E-03,3.280
5.50E-03,3.280
5.52E-03,3.440
5.54E-03,3.360
5.56E-03,3.280
5.58E-03,3.440
5.60E-03,3.360
5.62E-03,3.280
5.64E-03,3.360
5.66E-03,3.360
5.68E-03,3.360
5.70E-03,3.360
5.72E-03,3.280
5.74E-03,3.280
5.76E-03,3.280
5.78E-03,3.440
5.80E-03,3.280
5.82E-03,3.280
5.84E-03,3.280
5.86E-03,3.360
5.88E-03,3.440
5.90E-03,3.280
5.92E-03,3.440
5.94E-03,3.440
5.96E-03,3.440
5.98E-03,3.440
6.00E-03,3.440
6.02E-03,3.280
6.04E-03,3.360
6.06E-03,3.360
6.08E-03,3.360
6.10E-03,3.280
6.12E-03,3.360
6.14E-03,3.360
6.16E-03,3.440
6.18E-03,3.280
6.20E-03,3.280
6.22E-03,3.280
6.24E-03,3.360
6.26E-03,3.440
6.28E-03,3.360
6.30E-03,3.280
6.32E-03,3.440
6.34E-03,3.280
6.36E-03,3.440
6.38E-03,3.360
6.40E-03,3.360
6.42E-03,3.280
6.44E-03,3.360
6.46E-03,3.440
6.48E-03,3.280
6.50E-03,3.360
6.52E-03,3.280
6.54E-03,3.360
6.56E-03,3.440
6.58E-03,3.440
6.60E-03,3.280
6.62E-03,3.440
6.64E-03,3.360
6.66E-03,3.360
6.68E-03,3.280
6.70E-03,3.360
6.72E-03,3.280
6.74E-03,3.280
6.76E-03,3.360
6.78E-03,3.280
6.80E-03,3.280
6.82E-03,3.360
6.84E-03,3.440
6.86E-03,3.280
6.88E-03,3.280
6.90E-03,3.440
6.92E-03,3.280
6.94E-03,3.280
6.96E-03,3.280
6.98E-03,3.360
7.00E-03,3.280
7.02E-03,3.360
7.04E-03,3.360
7.06E-03,3.280
7.08E-03,3.280
7.10E-03,3.440
7.12E-03,3.360
7.14E-03,3.280
7.16E-03,3.360
7.18E-03,3.440
7.20E-03,3.360
7.22E-03,3.280
7.24E-03,3.280
7.26E-03,3.280
7.28E-03,3.280
7.30E-03,3.440
7.32E-03,3.280
7.34E-03,3.280
7.36E-03,3.280
7.38E-03,3.360
7.40E-03,3.360
7.42E-03,3.360
7.44E-03,3.280
7.46E-03,3.280
7.48E-03,3.280
7.50E-03,3.280
7.52E-03,3.280
7.54E-03,3.360
7.56E-03,3.360
7.58E-03,3.360
7.60E-03,3.360
7.62E-03,3.280
7.64E-03,3.280
7.66E-03,3.440
7.68E-03,3.280
7.70E-03,3.280
7.72E-03,3.360
7.74E-03,3.360
7.76E-03,3.360
7.78E-03,3.360
7.80E-03,3.280
7.82E-03,3.280
7.84E-03,3.360
7.86E-03,3.360
7.88E-03,3.360
7.90E-03,3.280
7.92E-03,3.280
7.94E-03,3.360
7.96E-03,3.280
7.98E-03,3.280
8.00E-03,3.440
8.02E-03,3.360
8.04E-03,3.280
8.06E-03,3.280
8.08E-03,3.440
8.10E-03,3.360
8.12E-03,3.280
8.14E-03,3.280
8.16E-03,3.280
8.18E-03,3.360
8.20E-03,3.360
8.22E-03,3.360
8.24E-03,3.440
8.26E-03,3.360
8.28E-03,3.360
8.30E-03,3.280
8.32E-03,3.360
8.34E-03,3.280
8.36E-03,3.280
8.38E-03,3.280
8.40E-03,3.280
8.42E-03,3.360
8.44E-03,3.280
8.46E-03,3.360
8.48E-03,3.280
8.50E-03,3.280
8.52E-03,3.280
8.54E-03,3.280
8.56E-03,3.360
8.58E-03,3.360
8.60E-03,3.360
8.62E-03,3.360
8.64E-03,3.280
8.66E-03,3.440
8.68E-03,3.440
8.70E-03,3.280
8.72E-03,3.360
8.74E-03,3.280
8.76E-03,3.360
8.78E-03,3.360
8.80E-03,3.280
8.82E-03,3.280
8.84E-03,3.360
8.86E-03,3.440
8.88E-03,3.360
8.90E-03,3.280
8.92E-03,3.280
8.94E-03,3.360
8.96E-03,3.280
8.98E-03,3.360
9.00E-03,3.280
9.02E-03,3.280
9.04E-03,3.280
9.06E-03,3.280
9.08E-03,3.280
9.10E-03,3.360
9.12E-03,3.440
9.14E-03,3.360
9.16E-03,3.440
9.18E-03,3.280
9.20E-03,3.280
9.22E-03,3.280
9.24E-03,3.360
9.26E-03,3.280
9.28E-03,3.280
9.30E-03,3.280
9.32E-03,3.440
9.34E-03,3.280
9.36E-03,3.280
9.38E-03,3.280
9.40E-03,3.280
9.42E-03,3.440
9.44E-03,3.360
9.46E-03,3.360
9.48E-03,3.280
9.50E-03,3.280
9.52E-03,3.280
9.54E-03,3.280
9.56E-03,3.280
9.58E-03,3.280
9.60E-03,3.280
9.62E-03,3.360
9.64E-03,3.360
9.66E-03,3.280
9.68E-03,3.280
9.70E-03,3.360
9.72E-03,3.440
9.74E-03,3.280
9.76E-03,3.280
9.78E-03,3.360
9.80E-03,3.280
9.82E-03,3.360
9.84E-03,3.440
9.86E-03,3.280
9.88E-03,3.440
9.90E-03,3.280
9.92E-03,3.360
9.94E-03,3.360
9.96E-03,3.280
9.98E-03,3.280
1.00E-02,3.280
1.00E-02,3.280
1.00E-02,3.360
1.01E-02,3.360
1.01E-02,3.360
1.01E-02,3.280
1.01E-02,3.280
1.01E-02,3.440
1.02E-02,3.280
1.02E-02,3.280
1.02E-02,3.440
1.02E-02,3.360
1.02E-02,3.440
1.03E-02,3.280
1.03E-02,3.360
1.03E-02,3.280
1.03E-02,3.280
1.03E-02,3.280
1.04E-02,3.280
1.04E-02,3.280
1.04E-02,3.360
1.04E-02,3.280
1.04E-02,3.280
1.05E-02,3.360
1.05E-02,3.280
1.05E-02,3.360
1.05E-02,3.280
1.05E-02,3.360
1.06E-02,3.280
1.06E-02,3.360
1.06E-02,3.360
1.06E-02,3.360
1.06E-02,3.440
1.07E-02,3.440
1.07E-02,3.360
1.07E-02,3.360
1.07E-02,3.280
1.07E-02,3.360
1.08E-02,3.280
1.08E-02,3.440
1.08E-02,3.360
1.08E-02,3.360
1.08E-02,3.280
1.09E-02,3.280
1.09E-02,3.280
1.09E-02,3.360
1.09E-02,3.280
1.09E-02,3.280
1.10E-02,3.280
1.10E-02,3.360
1.10E-02,3.360
1.10E-02,3.360
1.10E-02,3.360
1.11E-02,3.280
1.11E-02,3.280
1.11E-02,3.440
1.11E-02,3.360
1.11E-02,3.280
1.12E-02,3.280
1.12E-02,3.360
1.12E-02,3.440
1.12E-02,3.280
1.12E-02,3.360
1.13E-02,3.360
1.13E-02,3.280
1.13E-02,3.360
1.13E-02,3.280
1.13E-02,3.280
1.14E-02,3.360
1.14E-02,3.280
1.14E-02,3.360
1.14E-02,3.280
1.14E-02,3.280
1.15E-02,3.360
1.15E-02,3.280
1.15E-02,3.360
1.15E-02,3.360
1.15E-02,3.280
1.16E-02,3.280
1.16E-02,3.280
1.16E-02,3.440
1.16E-02,3.440
1.16E-02,3.280
1.17E-02,3.280
1.17E-02,3.280
1.17E-02,3.280
1.17E-02,3.440
1.17E-02,3.440
1.18E-02,3.280
1.18E-02,3.280
1.18E-02,3.280
1.18E-02,3.360
1.18E-02,3.280
1.19E-02,3.440
1.19E-02,3.360
1.19E-02,3.280
1.19E-02,3.360
1.19E-02,3.280
1.20E-02,3.280
1.20E-02,3.360
1.20E-02,3.280
1.20E-02,3.280
1.20E-02,3.280
1.21E-02,3.360
1.21E-02,3.360
1.21E-02,3.440
1.21E-02,3.280
1.21E-02,3.280
1.22E-02,3.360
1.22E-02,3.360
1.22E-02,3.280
1.22E-02,3.360
1.22E-02,3.280
1.23E-02,3.280
1.23E-02,3.360
1.23E-02,3.280
1.23E-02,3.440
1.23E-02,3.360
1.24E-02,3.280
1.24E-02,3.280
1.24E-02,3.360
1.24E-02,3.280
1.24E-02,3.360
1.25E-02,3.360
1.25E-02,3.280
1.25E-02,3.280
1.25E-02,3.440
1.25E-02,3.360
1.26E-02,3.360
1.26E-02,3.280
1.26E-02,3.360
1.26E-02,3.280
1.26E-02,3.360
1.27E-02,3.280
1.27E-02,3.360
1.27E-02,3.360
1.27E-02,3.280
1.27E-02,3.280
1.28E-02,3.280
1.28E-02,3.360
1.28E-02,3.440
1.28E-02,3.360
1.28E-02,3.280
1.29E-02,3.440
1.29E-02,3.440
1.29E-02,3.280
1.29E-02,3.280
1.29E-02,3.360
1.30E-02,3.440
1.30E-02,3.440
1.30E-02,3.280
1.30E-02,3.440
1.30E-02,3.440
1.31E-02,3.440
1.31E-02,3.280
1.31E-02,3.440
1.31E-02,3.440
1.31E-02,3.360
1.32E-02,3.360
1.32E-02,3.440
1.32E-02,3.440
1.32E-02,3.360
1.32E-02,3.280
1.33E-02,3.440
1.33E-02,3.360
1.33E-02,3.360
1.33E-02,3.280
1.33E-02,3.280
1.34E-02,3.440
1.34E-02,3.360
1.34E-02,3.360
1.34E-02,3.280
1.34E-02,3.280
1.35E-02,3.360
1.35E-02,3.280
1.35E-02,3.280
1.35E-02,3.360
1.35E-02,3.360
1.36E-02,3.280
1.36E-02,3.360
1.36E-02,3.280
1.36E-02,3.440
1.36E-02,3.360
1.37E-02,3.360
1.37E-02,3.280
1.37E-02,3.280
1.37E-02,3.280
1.37E-02,3.280
1.38E-02,3.360
1.38E-02,3.360
1.38E-02,3.440
1.38E-02,3.360
1.38E-02,3.360
1.39E-02,3.280
1.39E-02,3.280
1.39E-02,3.360
1.39E-02,3.360
1.39E-02,3.360
1.40E-02,3.280
1.40E-02,3.360
1.40E-02,3.280
1.40E-02,3.280
1.40E-02,3.280
1.41E-02,3.440
1.41E-02,3.360
1.41E-02,3.280
1.41E-02,3.280
1.41E-02,3.280
1.42E-02,3.280
1.42E-02,3.360
1.42E-02,3.440
1.42E-02,3.280
1.42E-02,3.440
1.43E-02,3.280
1.43E-02,3.360
1.43E-02,3.360
1.43E-02,3.280
1.43E-02,3.280
1.44E-02,3.440
1.44E-02,3.280
1.44E-02,3.440
1.44E-02,3.280
1.44E-02,3.280
1.45E-02,3.360
1.45E-02,3.440
1.45E-02,3.360
1.45E-02,3.280
1.45E-02,3.280
1.46E-02,3.360
1.46E-02,3.360
1.46E-02,3.440
1.46E-02,3.280
1.46E-02,3.280
1.47E-02,3.280
1.47E-02,3.360
1.47E-02,3.280
1.47E-02,3.280
1.47E-02,3.360
1.48E-02,3.280
1.48E-02,3.280
1.48E-02,3.280
1.48E-02,3.360
1.48E-02,3.360
1.49E-02,3.360
1.49E-02,3.360
1.49E-02,3.280
1.49E-02,3.280
1.49E-02,3.360
1.50E-02,3.280
1.50E-02,3.360
1.50E-02,3.280
1.50E-02,3.280
1.50E-02,3.280
1.51E-02,3.360
1.51E-02,3.280
1.51E-02,3.280
1.51E-02,3.360
1.51E-02,3.360
1.52E-02,3.280
1.52E-02,3.440
1.52E-02,3.280
1.52E-02,3.280
1.52E-02,3.280
1.53E-02,3.360
1.53E-02,3.360
1.53E-02,3.280
1.53E-02,3.360
1.53E-02,3.280
1.54E-02,3.360
1.54E-02,3.280
1.54E-02,3.360
1.54E-02,3.360
1.54E-02,3.280
1.55E-02,3.360
1.55E-02,3.280
1.55E-02,3.360
1.55E-02,3.280
1.55E-02,3.360
1.56E-02,3.440
1.56E-02,3.280
1.56E-02,3.440
1.56E-02,3.360
1.56E-02,3.360
1.57E-02,3.280
1.57E-02,3.280
1.57E-02,3.360
1.57E-02,3.440
1.57E-02,3.280
1.58E-02,3.360
1.58E-02,3.360
1.58E-02,3.360
1.58E-02,3.360
1.58E-02,3.440
1.59E-02,3.280
1.59E-02,3.360
1.59E-02,3.440
1.59E-02,3.280
1.59E-02,3.360
1.60E-02,3.280
1.60E-02,3.280
1.60E-02,3.280
1.60E-02,3.440
1.60E-02,3.360
1.61E-02,3.440
1.61E-02,3.360
1.61E-02,3.280
1.61E-02,3.280
1.61E-02,3.360
1.62E-02,3.440
1.62E-02,3.280
1.62E-02,3.360
1.62E-02,3.280
1.62E-02,3.360
1.63E-02,3.440
1.63E-02,3.280
1.63E-02,3.360
1.63E-02,3.280
1.63E-02,3.440
1.64E-02,3.440
1.64E-02,3.280
1.64E-02,3.360
1.64E-02,3.360
1.64E-02,3.360
1.65E-02,3.280
1.65E-02,3.280
1.65E-02,3.280
1.65E-02,3.360
1.65E-02,3.360
1.66E-02,3.440
1.66E-02,3.280
1.66E-02,3.360
1.66E-02,3.360
1.66E-02,3.360
1.67E-02,3.280
1.67E-02,3.360
1.67E-02,3.280
1.67E-02,3.360
1.67E-02,3.280
1.68E-02,3.360
1.68E-02,3.280
1.68E-02,3.360
1.68E-02,3.280
1.68E-02,3.280
1.69E-02,3.280
1.69E-02,3.280
1.69E-02,3.360
1.69E-02,3.360
1.69E-02,3.280
1.70E-02,3.440
1.70E-02,3.280
1.70E-02,3.360
1.70E-02,3.280
1.70E-02,3.280
1.71E-02,3.280
1.71E-02,3.360
1.71E-02,3.280
1.71E-02,3.360
1.71E-02,3.360
1.72E-02,3.440
1.72E-02,3.360
1.72E-02,3.360
1.72E-02,3.280
1.72E-02,3.360
1.73E-02,3.280
1.73E-02,3.360
1.73E-02,3.440
1.73E-02,3.360
1.73E-02,3.280
1.74E-02,3.440
1.74E-02,3.360
1.74E-02,3.360
1.74E-02,3.280
1.74E-02,3.440
1.75E-02,3.280
1.75E-02,3.360
1.75E-02,3.360
1.75E-02,3.280
1.75E-02,3.280
1.76E-02,3.360
1.76E-02,3.280
1.76E-02,3.360
1.76E-02,3.360
1.76E-02,3.280
1.77E-02,3.280
1.77E-02,3.360
1.77E-02,3.280
1.77E-02,3.360
1.77E-02,3.280
1.78E-02,3.280
1.78E-02,3.280
1.78E-02,3.280
1.78E-02,3.440
1.78E-02,3.280
1.79E-02,3.280
1.79E-02,3.360
1.79E-02,3.280
1.79E-02,3.280
1.79E-02,3.280
1.80E-02,3.280
1.80E-02,3.280
1.80E-02,3.360
1.80E-02,3.360
1.80E-02,3.360
1.81E-02,3.360
1.81E-02,3.280
1.81E-02,3.280
1.81E-02,3.360
1.81E-02,3.360
1.82E-02,3.360
1.82E-02,3.280
1.82E-02,3.360
1.82E-02,3.360
1.82E-02,3.280
1.83E-02,3.280
1.83E-02,3.360
1.83E-02,3.360
1.83E-02,3.360
1.83E-02,3.280
1.84E-02,3.440
1.84E-02,3.360
1.84E-02,3.360
1.84E-02,3.280
1.84E-02,3.440
1.85E-02,3.440
1.85E-02,3.280
1.85E-02,3.360
1.85E-02,3.280
1.85E-02,3.280
1.86E-02,3.440
1.86E-02,3.280
1.86E-02,3.280
1.86E-02,3.360
1.86E-02,3.280
1.87E-02,3.440
1.87E-02,3.280
1.87E-02,3.280
1.87E-02,3.360
1.87E-02,3.360
1.88E-02,3.360
1.88E-02,3.280
1.88E-02,3.360
1.88E-02,3.360
1.88E-02,3.440
1.89E-02,3.280
1.89E-02,3.440
1.89E-02,3.360
1.89E-02,3.280
1.89E-02,3.360
1.90E-02,3.440
1.90E-02,3.280
1.90E-02,3.280
1.90E-02,3.440
1.90E-02,3.280
1.91E-02,3.440
1.91E-02,3.440
1.91E-02,3.360
1.91E-02,3.280
1.91E-02,3.280
1.92E-02,3.280
1.92E-02,3.280
1.92E-02,3.360
1.92E-02,3.360
1.92E-02,3.440
1.93E-02,3.280
1.93E-02,3.440
1.93E-02,3.360
1.93E-02,3.280
1.93E-02,3.360
1.94E-02,3.360
1.94E-02,3.360
1.94E-02,3.280
1.94E-02,3.280
1.94E-02,3.440
1.95E-02,3.360
1.95E-02,3.280
1.95E-02,3.440
1.95E-02,3.280
1.95E-02,3.280
1.96E-02,3.280
1.96E-02,3.360
1.96E-02,3.360
1.96E-02,3.280
1.96E-02,3.360
1.97E-02,3.360
1.97E-02,3.280
1.97E-02,3.360
1.97E-02,3.440
1.97E-02,3.360
1.98E-02,3.360
1.98E-02,3.280
1.98E-02,3.280
1.98E-02,3.360
1.98E-02,3.440
1.99E-02,3.280
1.99E-02,3.280
1.99E-02,3.360
1.99E-02,3.360
1.99E-02,3.280
2.00E-02,3.280
2.00E-02,3.280
2.00E-02,3.280
2.00E-02,3.280
2.00E-02,3.280
2.01E-02,3.360
2.01E-02,3.280
2.01E-02,3.280
2.01E-02,3.440
2.01E-02,3.280
2.02E-02,3.360
2.02E-02,3.360
2.02E-02,3.280
2.02E-02,3.280
2.02E-02,3.280
2.03E-02,3.360
2.03E-02,3.280
2.03E-02,3.360
2.03E-02,3.280
2.03E-02,3.440
2.04E-02,3.360
2.04E-02,3.280
2.04E-02,3.440
2.04E-02,3.280
2.04E-02,3.360
2.05E-02,3.280
2.05E-02,3.360
2.05E-02,3.280
2.05E-02,3.440
2.05E-02,3.360
2.06E-02,3.440
2.06E-02,3.280
2.06E-02,3.280
2.06E-02,3.360
2.06E-02,3.280
2.07E-02,3.360
2.07E-02,3.360
2.07E-02,3.280
2.07E-02,3.360
2.07E-02,3.360
2.08E-02,3.280
2.08E-02,3.360
2.08E-02,3.360
2.08E-02,3.360
2.08E-02,3.280
2.09E-02,3.360
2.09E-02,3.280
2.09E-02,3.360
2.09E-02,3.280
2.09E-02,3.280
2.10E-02,3.360
2.10E-02,3.280
2.10E-02,3.280
2.10E-02,3.440
2.10E-02,3.280
2.11E-02,3.280
2.11E-02,3.360
2.11E-02,3.360
2.11E-02,3.280
2.11E-02,3.280
2.12E-02,3.280
2.12E-02,3.280
2.12E-02,3.360
2.12E-02,3.280
2.12E-02,3.360
2.13E-02,3.280
2.13E-02,3.280
2.13E-02,3.360
2.13E-02,3.360
2.13E-02,3.360
2.14E-02,3.280
2.14E-02,3.360
2.14E-02,3.360
2.14E-02,3.280
2.14E-02,3.280
2.15E-02,3.440
2.15E-02,3.280
2.15E-02,3.280
2.15E-02,3.360
2.15E-02,3.360
2.16E-02,3.360
2.16E-02,3.440
2.16E-02,3.280
2.16E-02,3.360
2.16E-02,3.360
2.17E-02,3.360
2.17E-02,3.280
2.17E-02,3.360
2.17E-02,3.280
2.17E-02,3.360
2.18E-02,3.360
2.18E-02,3.280
2.18E-02,3.440
2.18E-02,3.360
2.18E-02,3.280
2.19E-02,3.440
2.19E-02,3.360
2.19E-02,3.360
2.19E-02,3.280
2.19E-02,3.360
2.20E-02,3.360
2.20E-02,3.280
2.20E-02,3.440
2.20E-02,3.280
2.20E-02,3.360
2.21E-02,3.440
2.21E-02,0.000
2.21E-02,0.000
2.21E-02,0.080
2.21E-02,0.000
2.22E-02,0.080
2.22E-02,0.080
2.22E-02,0.080
2.22E-02,0.080
2.22E-02,0.080
2.23E-02,0.080
2.23E-02,0.080
2.23E-02,0.080
2.23E-02,0.080
2.23E-02,0.000
2.24E-02,0.080
2.24E-02,0.080
2.24E-02,0.080
2.24E-02,0.000
2.24E-02,0.080
2.25E-02,0.080
2.25E-02,0.080
2.25E-02,0.080
2.25E-02,0.080
2.25E-02,0.080
2.26E-02,0.080
2.26E-02,0.080
2.26E-02,0.080
2.26E-02,0.080
2.26E-02,0.080
2.27E-02,0.160
2.27E-02,0.160
2.27E-02,0.000
2.27E-02,0.080
2.27E-02,0.080
2.28E-02,0.080
2.28E-02,0.000
2.28E-02,0.000
2.28E-02,0.080
2.28E-02,0.160
2.29E-02,0.000
2.29E-02,0.080
2.29E-02,0.080
2.29E-02,3.360
2.29E-02,3.200
2.30E-02,3.360
2.30E-02,0.000
2.30E-02,0.080
2.30E-02,0.080
2.30E-02,0.080
2.31E-02,0.000
2.31E-02,3.360
2.31E-02,3.280
2.31E-02,0.000
2.31E-02,0.080
2.32E-02,0.160
2.32E-02,3.280
2.32E-02,3.280
2.32E-02,3.360
2.32E-02,0.000
2.33E-02,0.000
2.33E-02,3.360
2.33E-02,3.280
2.33E-02,3.280
2.33E-02,0.080
2.34E-02,0.080
2.34E-02,3.360
2.34E-02,3.360
2.34E-02,3.280
2.34E-02,3.280
2.35E-02,3.360
2.35E-02,3.440
2.35E-02,3.280
2.35E-02,0.080
2.35E-02,0.080
2.36E-02,0.080
2.36E-02,0.080
2.36E-02,0.000
2.36E-02,0.080
2.36E-02,0.160
2.37E-02,0.160
2.37E-02,0.000
2.37E-02,0.000
2.37E-02,0.080
2.37E-02,0.000
2.38E-02,0.080
2.38E-02,0.160
2.38E-02,0.000
2.38E-02,0.080
2.38E-02,3.200
2.39E-02,3.280
2.39E-02,3.280
2.39E-02,3.280
2.39E-02,3.280
2.39E-02,0.080
2.40E-02,0.080
2.40E-02,3.440
2.40E-02,3.280
2.40E-02,3.280
2.40E-02,3.360
2.41E-02,0.080
2.41E-02,0.080
2.41E-02,0.080
2.41E-02,3.280
2.41E-02,3.440
2.42E-02,3.280
2.42E-02,3.360
2.42E-02,3.360
2.42E-02,3.280
2.42E-02,3.360
2.43E-02,3.280
2.43E-02,3.360
2.43E-02,3.280
2.43E-02,3.440
2.43E-02,3.360
2.44E-02,3.440
2.44E-02,0.080
2.44E-02,0.160
2.44E-02,0.080
2.44E-02,0.080
2.45E-02,0.080
2.45E-02,3.360
2.45E-02,3.280
2.45E-02,3.280
2.45E-02,3.280
2.46E-02,3.360
2.46E-02,3.280
2.46E-02,3.360
2.46E-02,3.280
2.46E-02,0.080
2.47E-02,0.080
2.47E-02,2.640
2.47E-02,3.280
2.47E-02,3.280
2.47E-02,3.280
2.48E-02,3.440
2.48E-02,3.360
2.48E-02,3.280
2.48E-02,3.360
2.48E-02,3.280
2.49E-02,3.280
2.49E-02,3.360
2.49E-02,3.440
2.49E-02,3.360
2.49E-02,3.360
2.50E-02,3.360
2.50E-02,3.360
2.50E-02,3.360
2.50E-02,3.360
2.50E-02,3.360
2.51E-02,3.440
2.51E-02,3.360
2.51E-02,3.440
2.51E-02,3.280
2.51E-02,3.440
2.52E-02,3.440
2.52E-02,3.360
2.52E-02,0.400
2.52E-02,0.160
2.52E-02,0.080
2.53E-02,3.440
2.53E-02,3.360
2.53E-02,3.280
2.53E-02,3.280
2.53E-02,3.280
2.54E-02,3.280
2.54E-02,3.280
2.54E-02,3.360
2.54E-02,3.360
2.54E-02,3.440
2.55E-02,3.360
2.55E-02,3.360
2.55E-02,3.360
2.55E-02,3.440
2.55E-02,3.440
2.56E-02,3.440
2.56E-02,0.240
2.56E-02,0.080
2.56E-02,3.280
2.56E-02,3.360
2.57E-02,3.360
2.57E-02,3.360
2.57E-02,3.280
2.57E-02,3.280
2.57E-02,3.440
2.58E-02,3.280
2.58E-02,0.160
2.58E-02,0.240
2.58E-02,0.000
2.58E-02,3.440
2.59E-02,3.360
2.59E-02,3.440
2.59E-02,3.280
2.59E-02,3.440
2.59E-02,3.360
2.60E-02,3.440
2.60E-02,3.280
2.60E-02,3.440
2.60E-02,3.360
2.60E-02,3.360
2.61E-02,3.440
2.61E-02,3.360
2.61E-02,3.440
2.61E-02,3.360
2.61E-02,3.280
2.62E-02,3.280
2.62E-02,3.440
2.62E-02,3.360
2.62E-02,3.440
2.62E-02,3.440
2.63E-02,3.360
2.63E-02,3.360
2.63E-02,3.440
2.63E-02,3.360
2.63E-02,3.360
2.64E-02,0.160
2.64E-02,0.080
2.64E-02,3.360
2.64E-02,3.360
2.64E-02,3.280
2.65E-02,3.360
2.65E-02,3.440
2.65E-02,3.360
2.65E-02,3.280
2.65E-02,3.360
2.66E-02,3.440
2.66E-02,3.280
